<?xml version="1.0" encoding="UTF-8" standalone="no"?>
<!-- Created with Inkscape (http://www.inkscape.org/) -->

<svg
   xmlns:dc="http://purl.org/dc/elements/1.1/"
   xmlns:cc="http://creativecommons.org/ns#"
   xmlns:rdf="http://www.w3.org/1999/02/22-rdf-syntax-ns#"
   xmlns:svg="http://www.w3.org/2000/svg"
   xmlns="http://www.w3.org/2000/svg"
   xmlns:xlink="http://www.w3.org/1999/xlink"
   xmlns:sodipodi="http://sodipodi.sourceforge.net/DTD/sodipodi-0.dtd"
   xmlns:inkscape="http://www.inkscape.org/namespaces/inkscape"
   width="210mm"
   height="297mm"
   viewBox="0 0 210 297"
   version="1.1"
   id="svg4333"
   inkscape:version="0.92.4 (5da689c313, 2019-01-14)"
   sodipodi:docname="logo_jhada_esprit.svg">
  <defs
     id="defs4327">
    <linearGradient
       inkscape:collect="always"
       id="linearGradient5467">
      <stop
         style="stop-color:#00ffff;stop-opacity:1"
         offset="0"
         id="stop5463" />
      <stop
         style="stop-color:#008080;stop-opacity:1"
         offset="1"
         id="stop5465" />
    </linearGradient>
    <linearGradient
       inkscape:collect="always"
       id="linearGradient5403">
      <stop
         style="stop-color:#ff7f2a;stop-opacity:1"
         offset="0"
         id="stop5399" />
      <stop
         style="stop-color:#803300;stop-opacity:1"
         offset="1"
         id="stop5401" />
    </linearGradient>
    <radialGradient
       inkscape:collect="always"
       xlink:href="#linearGradient5403"
       id="radialGradient5405"
       cx="146.82108"
       cy="242.78947"
       fx="146.82108"
       fy="242.78947"
       r="46.606744"
       gradientTransform="matrix(1,0,0,0.88890548,0,24.694511)"
       gradientUnits="userSpaceOnUse" />
    <radialGradient
       inkscape:collect="always"
       xlink:href="#linearGradient5403"
       id="radialGradient5407"
       gradientUnits="userSpaceOnUse"
       gradientTransform="matrix(1,0,0,0.88890548,0,24.694511)"
       cx="146.82108"
       cy="242.78947"
       fx="146.82108"
       fy="242.78947"
       r="46.606744" />
    <radialGradient
       inkscape:collect="always"
       xlink:href="#linearGradient5403"
       id="radialGradient5409"
       gradientUnits="userSpaceOnUse"
       gradientTransform="matrix(1,0,0,0.88890548,0,24.694511)"
       cx="146.82108"
       cy="242.78947"
       fx="146.82108"
       fy="242.78947"
       r="46.606744" />
    <radialGradient
       inkscape:collect="always"
       xlink:href="#linearGradient5403"
       id="radialGradient5411"
       gradientUnits="userSpaceOnUse"
       gradientTransform="matrix(1,0,0,0.88890548,0,24.694511)"
       cx="146.82108"
       cy="242.78947"
       fx="146.82108"
       fy="242.78947"
       r="46.606744" />
    <radialGradient
       inkscape:collect="always"
       xlink:href="#linearGradient5403"
       id="radialGradient5413"
       gradientUnits="userSpaceOnUse"
       gradientTransform="matrix(1,0,0,0.88890548,0,24.694511)"
       cx="146.82108"
       cy="242.78947"
       fx="146.82108"
       fy="242.78947"
       r="46.606744" />
    <radialGradient
       inkscape:collect="always"
       xlink:href="#linearGradient5467"
       id="radialGradient5469"
       cx="35.33004"
       cy="248.72668"
       fx="35.33004"
       fy="248.72668"
       r="48.885183"
       gradientTransform="matrix(1,0,0,0.98173761,0,4.0920147)"
       gradientUnits="userSpaceOnUse" />
  </defs>
  <sodipodi:namedview
     id="base"
     pagecolor="#ffffff"
     bordercolor="#666666"
     borderopacity="1.0"
     inkscape:pageopacity="0.0"
     inkscape:pageshadow="2"
     inkscape:zoom="0.49497475"
     inkscape:cx="163.01986"
     inkscape:cy="601.30363"
     inkscape:document-units="mm"
     inkscape:current-layer="layer1"
     showgrid="false"
     inkscape:window-width="1858"
     inkscape:window-height="1057"
     inkscape:window-x="-8"
     inkscape:window-y="-8"
     inkscape:window-maximized="1"
     showguides="true"
     inkscape:guide-bbox="true">
    <sodipodi:guide
       position="163.69234,120.92456"
       orientation="0,1"
       id="guide5453"
       inkscape:locked="false" />
    <sodipodi:guide
       position="148.92262,24.190477"
       orientation="0,1"
       id="guide5455"
       inkscape:locked="false" />
  </sodipodi:namedview>
  <metadata
     id="metadata4330">
    <rdf:RDF>
      <cc:Work
         rdf:about="">
        <dc:format>image/svg+xml</dc:format>
        <dc:type
           rdf:resource="http://purl.org/dc/dcmitype/StillImage" />
        <dc:title></dc:title>
      </cc:Work>
    </rdf:RDF>
  </metadata>
  <g
     inkscape:label="Calque 1"
     inkscape:groupmode="layer"
     id="layer1">
    <g
       id="g5461"
       style="fill-opacity:1;fill:url(#radialGradient5469)"
       inkscape:export-xdpi="96"
       inkscape:export-ydpi="96">
      <path
         sodipodi:nodetypes="caasacaccccaaaaasaac"
         inkscape:connector-curvature="0"
         id="path4335"
         d="m 35.330041,248.27636 c 0,0 0.993332,-4.04405 2.041805,-5.80823 0.916033,-1.54133 2.053255,-3.09365 3.604723,-3.9924 1.964018,-1.13775 4.41276,-1.68685 6.654362,-1.44428 5.38748,0.58299 11.09557,5.25012 12.40352,10.50883 1.68106,6.75886 -2.20332,15.73259 -7.75704,19.40107 -6.694555,4.85062 -16.24483,6.50031 -23.867476,3.88047 -6.321114,-2.17251 -12.479569,-7.72788 -13.63209,-14.70553 -1.831214,-8.31906 1.452926,-16.56971 5.670915,-23.6042 5.487685,-9.49851 12.163767,-18.87392 13.418859,-30.08507 0.397185,-1.98935 0.580453,-7.63643 0.303962,-2.74159 -0.490794,8.47073 -2.195947,16.83643 -4.094857,25.09743 -2.009511,8.74215 -9.253279,16.95118 -7.698865,25.7856 0.742352,4.21912 3.865417,8.33052 7.659349,10.32002 3.658465,1.91846 8.410204,1.53855 12.385891,0.41659 2.446094,-0.6903 4.901562,-2.12243 6.362332,-4.20235 1.77736,-2.53071 3.24598,-6.24967 2.18262,-9.01708 -0.60398,-1.57185 -2.05907,-3.10608 -3.6885,-3.75968 -1.963103,-0.78745 -4.32823,-0.44332 -6.342189,0.20306 -2.140528,0.68701 -5.607321,3.74734 -5.607321,3.74734 z"
         style="fill:url(#radialGradient5469);fill-opacity:1;stroke:none;stroke-width:0.26458332px;stroke-linecap:butt;stroke-linejoin:miter;stroke-opacity:1" />
      <path
         sodipodi:nodetypes="caascaaac"
         inkscape:connector-curvature="0"
         id="path4341"
         d="m 16.090198,229.6847 c 0,0 -0.927814,-5.31973 -0.912358,-8.00544 0.02276,-3.95408 1.468176,-7.81577 1.478795,-11.7699 0.0086,-3.20778 -0.300801,-6.3074 -1.148362,-9.5546 -2.290043,-8.77371 -7.5560592,-16.53568 -12.2684282,-24.27932 8.5386072,7.85943 17.4487022,13.95556 20.6670532,24.01423 1.21272,3.79024 -0.219467,8.00537 -1.088428,11.88887 -0.995285,4.44805 -3.008433,8.60772 -4.675559,12.84995 -0.64278,1.63564 -2.052713,4.85621 -2.052713,4.85621 z"
         style="fill:url(#radialGradient5469);fill-opacity:1;stroke:none;stroke-width:0.26458332px;stroke-linecap:butt;stroke-linejoin:miter;stroke-opacity:1" />
      <path
         sodipodi:nodetypes="csaacasc"
         inkscape:connector-curvature="0"
         id="path4343"
         d="m 36.571508,232.72675 c 3.578352,-2.06013 8.117644,-7.68665 17.861203,-6.42522 5.861778,0.75888 11.174837,4.1402 17.373692,3.54711 4.478883,-0.42853 9.425528,-1.52986 13.715441,-5.0762 6.312224,-5.21814 11.559868,-16.62441 15.488366,-22.01769 -5.617367,7.51387 -14.985117,10.79368 -22.688498,13.72522 -8.014868,3.05007 -15.77248,3.04732 -23.759769,3.74493 -8.038557,0.70209 -13.878622,7.5663 -17.990435,12.50185 z"
         style="fill:url(#radialGradient5469);fill-opacity:1;stroke:none;stroke-width:0.27280208px;stroke-linecap:butt;stroke-linejoin:miter;stroke-opacity:1" />
      <path
         sodipodi:nodetypes="casacasac"
         inkscape:connector-curvature="0"
         id="path4345"
         d="m 38.132436,218.11246 c 0,0 -0.50437,-5.32041 -0.152505,-7.94614 0.435283,-3.24822 1.606827,-7.13242 2.770089,-9.43346 2.572246,-5.08816 9.209156,-7.17085 12.109536,-12.07937 2.21979,-3.7567 3.62694,-12.57805 3.62694,-12.57805 1.15234,4.54136 1.65333,6.75531 1.56641,10.19116 -0.14496,5.73026 -0.63397,11.86064 -3.4685,16.84284 -2.38266,4.18796 -8.09671,5.83706 -11.658088,9.30737 -1.777279,1.73183 -4.793882,5.69565 -4.793882,5.69565 z"
         style="fill:url(#radialGradient5469);fill-opacity:1;stroke:none;stroke-width:0.26458332px;stroke-linecap:butt;stroke-linejoin:miter;stroke-opacity:1" />
    </g>
    <g
       id="g5397"
       style="fill:url(#radialGradient5405);fill-opacity:1"
       transform="rotate(-11.882086,143.44017,233.52178)"
       inkscape:export-xdpi="96"
       inkscape:export-ydpi="96">
      <path
         sodipodi:nodetypes="aaacaaaa"
         inkscape:connector-curvature="0"
         id="path4337-6"
         d="m 145.78347,218.83043 c -1.93741,-2.74563 0.71833,-6.74721 0.2696,-10.07747 -0.60505,-4.49044 -2.2808,-8.79387 -3.94715,-13.00732 -2.0358,-5.14763 -7.35156,-14.89083 -7.35156,-14.89083 0,0 14.50875,11.27458 18.29314,19.28648 2.2581,4.78061 4.54508,11.1309 1.9553,15.74027 -1.37298,2.44369 -4.86749,3.30323 -7.66638,3.455 -0.54366,0.0294 -1.23904,-0.0613 -1.55295,-0.50613 z"
         style="fill:url(#radialGradient5407);fill-opacity:1;stroke:none;stroke-width:0.26458332px;stroke-linecap:butt;stroke-linejoin:miter;stroke-opacity:1" />
      <path
         sodipodi:nodetypes="cassasaac"
         inkscape:connector-curvature="0"
         id="path4339-7"
         d="m 175.08651,181.47621 c 0,0 2.30998,6.82027 2.66207,10.37238 0.25396,2.56209 0.0586,4.99223 -0.41405,7.71282 -1.04388,6.008 -3.90179,11.77359 -8.24801,16.32922 -4.45137,4.66584 2.73644,8.34055 6.20213,8.34462 5.69328,0.007 9.17713,-7.82161 10.22075,-13.68422 1.1547,-6.48663 0.28164,-10.88496 -1.34343,-15.97601 -0.99931,-3.13067 -3.08781,-5.82665 -5.01849,-8.486 -1.20353,-1.65775 -4.06097,-4.61281 -4.06097,-4.61281 z"
         style="fill:url(#radialGradient5409);fill-opacity:1;stroke:none;stroke-width:0.26458332px;stroke-linecap:butt;stroke-linejoin:miter;stroke-opacity:1" />
      <path
         sodipodi:nodetypes="caasacaccccaaaaasaac"
         inkscape:connector-curvature="0"
         id="path4335-1"
         d="m 146.82108,240.51144 c 0,0 -1.83557,-3.73788 -2.16476,-5.76354 -0.28764,-1.76975 -0.41275,-3.69 0.19938,-5.37525 0.77489,-2.13341 2.29936,-4.12686 4.17345,-5.38042 4.50419,-3.01283 11.87688,-3.10082 16.25654,0.0903 5.62901,4.1015 8.41415,13.47482 6.51273,19.8534 -2.01679,8.01736 -8.27821,15.41492 -15.8038,18.30177 -6.24061,2.39392 -14.52895,2.09025 -19.89332,-2.51839 -6.74604,-5.20106 -9.52695,-13.63464 -10.81103,-21.73567 -1.89311,-10.80521 -2.79622,-22.27921 -9.03368,-31.67917 -0.97304,-1.78001 -4.45899,-6.2265 -1.52756,-2.29677 5.06349,6.80846 9.12866,14.31623 12.97807,21.8682 4.07363,7.9918 3.79252,18.93626 10.65733,24.71013 3.27849,2.75746 8.31274,3.90352 12.49861,2.9922 4.03641,-0.8788 7.43492,-4.22146 9.762,-7.6346 1.43178,-2.09999 2.39434,-4.77464 2.17843,-7.30708 -0.26272,-3.08133 -1.52479,-6.87531 -4.11748,-8.31374 -1.47238,-0.81704 -3.57304,-1.05869 -5.24181,-0.51332 -2.01051,0.65704 -3.60252,2.43967 -4.73124,4.22847 -1.19966,1.90124 -1.89186,6.47344 -1.89186,6.47344 z"
         style="fill:url(#radialGradient5411);fill-opacity:1;stroke:none;stroke-width:0.26458332px;stroke-linecap:butt;stroke-linejoin:miter;stroke-opacity:1" />
      <path
         sodipodi:nodetypes="cassasaac"
         inkscape:connector-curvature="0"
         id="path4339-7-0"
         d="m 205.19376,207.10178 c 0,0 -1.45613,7.05208 -2.94866,10.29458 -1.07654,2.33877 -2.47399,4.33649 -4.25753,6.44456 -3.93879,4.6553 -9.31997,8.18411 -15.37327,9.91645 -6.19974,1.77425 -1.85701,8.5793 1.13083,10.3354 4.90812,2.8851 11.87257,-2.10698 15.73761,-6.63697 4.27642,-5.01218 5.74744,-9.24817 6.91999,-14.46207 0.72104,-3.20622 0.28261,-6.58822 -0.0382,-9.85881 -0.19999,-2.03878 -1.17078,-6.03314 -1.17078,-6.03314 z"
         style="fill:url(#radialGradient5413);fill-opacity:1;stroke:none;stroke-width:0.26458332px;stroke-linecap:butt;stroke-linejoin:miter;stroke-opacity:1" />
    </g>
  </g>
</svg>
